{
    "DocuSignEnvelopeInformation": {
        "@xmlns:xsd": "http://www.w3.org/2001/XMLSchema", 
        "@xmlns:xsi": "http://www.w3.org/2001/XMLSchema-instance", 
        "@xmlns": "http://www.docusign.net/API/3.0", 
        "EnvelopeStatus": {
            "RecipientStatuses": {
                "RecipientStatus": {
                    "Type": "Signer", 
                    "Email": "miamiweblab@gmail.com", 
                    "UserName": "Mike Lopez", 
                    "RoutingOrder": "1", 
                    "Sent": "2018-09-18T18:48:21.697", 
                    "Delivered": "2018-09-18T18:49:03.597", 
                    "DeclineReason": {
                        "@xsi:nil": "true"
                    }, 
                    "Status": "Delivered", 
                    "RecipientIPAddress": "98.254.99.36", 
                    "CustomFields": null, 
                    "TabStatuses": {
                        "TabStatus": [
                            {
                                "TabType": "SignHere", 
                                "Status": "Active", 
                                "XPosition": "312", 
                                "YPosition": "697", 
                                "TabLabel": "Sign Here", 
                                "TabName": "SignHere", 
                                "TabValue": null, 
                                "DocumentID": "1", 
                                "PageNumber": "2"
                            }, 
                            {
                                "TabType": "Title", 
                                "Status": "Signed", 
                                "XPosition": "312", 
                                "YPosition": "625", 
                                "TabLabel": "Title", 
                                "TabName": "Title", 
                                "TabValue": "senior fish engineer", 
                                "DocumentID": "1", 
                                "PageNumber": "2"
                            }, 
                            {
                                "TabType": "FullName", 
                                "Status": "Signed", 
                                "XPosition": "312", 
                                "YPosition": "583", 
                                "TabLabel": "Full Name", 
                                "TabName": "FullName", 
                                "TabValue": "Mike Lopez", 
                                "DocumentID": "1", 
                                "PageNumber": "2"
                            }, 
                            {
                                "TabType": "InitialHere", 
                                "Status": "Signed", 
                                "XPosition": "1041", 
                                "YPosition": "1562", 
                                "TabLabel": "Initial Here", 
                                "TabName": "InitialHere", 
                                "TabValue": null, 
                                "DocumentID": "1", 
                                "PageNumber": "1"
                            }, 
                            {
                                "TabType": "DateSigned", 
                                "Status": "Active", 
                                "XPosition": "312", 
                                "YPosition": "687", 
                                "TabLabel": "Date Signed", 
                                "TabName": "DateSigned", 
                                "TabValue": "9/18/2018 6:49:19 PM PDT", 
                                "DocumentID": "1", 
                                "PageNumber": "2"
                            }
                        ]
                    }, 
                    "AccountStatus": "Active", 
                    "EsignAgreementInformation": {
                        "AccountEsignId": "a11368af-5bc6-4e82-93e6-f9883aa86326", 
                        "UserEsignId": "e3ca1e54-352f-4936-a0b5-28e26d70e880", 
                        "AgreementDate": "2018-09-18T18:49:03.567"
                    }, 
                    "RecipientId": "f8a2dd8e-abb6-4f29-a0d7-8c164362bf11"
                }
            }, 
            "TimeGenerated": "2018-09-18T18:49:24.2884735", 
            "EnvelopeID": "a16988ad-6354-4d51-98b1-dc1145ccfdf1", 
            "Subject": "Please Sign my Python SDK Envelope", 
            "UserName": "Caesar Engroba", 
            "Email": "caesar@itpscorp.com", 
            "Status": "Delivered", 
            "Created": "2018-09-18T18:48:20.947", 
            "Sent": "2018-09-18T18:48:21.777", 
            "Delivered": "2018-09-18T18:49:03.847", 
            "ACStatus": "Original", 
            "ACStatusDate": "2018-09-18T18:48:20.947", 
            "ACHolder": "Caesar Engroba", 
            "ACHolderEmail": "caesar@itpscorp.com", 
            "ACHolderLocation": "DocuSign", 
            "SigningLocation": "Online", 
            "SenderIPAddress": "192.112.255.145", 
            "EnvelopePDFHash": null, 
            "CustomFields": null, 
            "AutoNavigation": "true", 
            "EnvelopeIdStamping": "true", 
            "AuthoritativeCopy": "false", 
            "DocumentStatuses": {
                "DocumentStatus": {
                    "ID": "1", 
                    "Name": "/home/itp/itp-quote-copy.pdf", 
                    "TemplateName": null, 
                    "Sequence": "1"
                }
            }
        }
    }
}{
    "DocuSignEnvelopeInformation": {
        "@xmlns:xsd": "http://www.w3.org/2001/XMLSchema", 
        "@xmlns:xsi": "http://www.w3.org/2001/XMLSchema-instance", 
        "@xmlns": "http://www.docusign.net/API/3.0", 
        "EnvelopeStatus": {
            "RecipientStatuses": {
                "RecipientStatus": {
                    "Type": "Signer", 
                    "Email": "miamiweblab@gmail.com", 
                    "UserName": "Mike Lopez", 
                    "RoutingOrder": "1", 
                    "Sent": "2018-09-18T18:48:21.697", 
                    "Delivered": "2018-09-18T18:49:03.597", 
                    "Signed": "2018-09-18T18:50:13.96", 
                    "DeclineReason": {
                        "@xsi:nil": "true"
                    }, 
                    "Status": "Completed", 
                    "RecipientIPAddress": "98.254.99.36", 
                    "CustomFields": null, 
                    "TabStatuses": {
                        "TabStatus": [
                            {
                                "TabType": "Title", 
                                "Status": "Signed", 
                                "XPosition": "312", 
                                "YPosition": "625", 
                                "TabLabel": "Title", 
                                "TabName": "Title", 
                                "TabValue": "senior fish engineer", 
                                "DocumentID": "1", 
                                "PageNumber": "2"
                            }, 
                            {
                                "TabType": "FullName", 
                                "Status": "Signed", 
                                "XPosition": "312", 
                                "YPosition": "583", 
                                "TabLabel": "Full Name", 
                                "TabName": "FullName", 
                                "TabValue": "Mike Lopez", 
                                "DocumentID": "1", 
                                "PageNumber": "2"
                            }, 
                            {
                                "TabType": "InitialHere", 
                                "Status": "Signed", 
                                "XPosition": "1041", 
                                "YPosition": "1562", 
                                "TabLabel": "Initial Here", 
                                "TabName": "InitialHere", 
                                "TabValue": null, 
                                "DocumentID": "1", 
                                "PageNumber": "1"
                            }, 
                            {
                                "TabType": "SignHere", 
                                "Status": "Signed", 
                                "XPosition": "312", 
                                "YPosition": "697", 
                                "TabLabel": "Sign Here", 
                                "TabName": "SignHere", 
                                "TabValue": null, 
                                "DocumentID": "1", 
                                "PageNumber": "2"
                            }, 
                            {
                                "TabType": "DateSigned", 
                                "Status": "Signed", 
                                "XPosition": "312", 
                                "YPosition": "687", 
                                "TabLabel": "Date Signed", 
                                "TabName": "DateSigned", 
                                "TabValue": "9/18/2018 6:50:13 PM PDT", 
                                "DocumentID": "1", 
                                "PageNumber": "2"
                            }
                        ]
                    }, 
                    "RecipientAttachment": {
                        "Attachment": {
                            "Data": "PEZvcm1EYXRhPjx4ZmRmPjxmaWVsZHM+PGZpZWxkIG5hbWU9IlRpdGxlIj48dmFsdWU+c2VuaW9yIGZpc2ggZW5naW5lZXI8L3ZhbHVlPjwvZmllbGQ+PGZpZWxkIG5hbWU9IkZ1bGxOYW1lIj48dmFsdWU+TWlrZSBMb3BlejwvdmFsdWU+PC9maWVsZD48ZmllbGQgbmFtZT0iRGF0ZVNpZ25lZCI+PHZhbHVlPjkvMTgvMjAxOCA2OjUwOjEzIFBNIFBEVDwvdmFsdWU+PC9maWVsZD48L2ZpZWxkcz48L3hmZGY+PC9Gb3JtRGF0YT4=", 
                            "Label": "DSXForm"
                        }
                    }, 
                    "AccountStatus": "Active", 
                    "FormData": {
                        "xfdf": {
                            "fields": {
                                "field": [
                                    {
                                        "@name": "Title", 
                                        "value": "senior fish engineer"
                                    }, 
                                    {
                                        "@name": "FullName", 
                                        "value": "Mike Lopez"
                                    }, 
                                    {
                                        "@name": "DateSigned", 
                                        "value": "9/18/2018 6:50:13 PM PDT"
                                    }
                                ]
                            }
                        }
                    }, 
                    "RecipientId": "f8a2dd8e-abb6-4f29-a0d7-8c164362bf11"
                }
            }, 
            "TimeGenerated": "2018-09-18T18:50:36.2505874", 
            "EnvelopeID": "a16988ad-6354-4d51-98b1-dc1145ccfdf1", 
            "Subject": "Please Sign my Python SDK Envelope", 
            "UserName": "Caesar Engroba", 
            "Email": "caesar@itpscorp.com", 
            "Status": "Completed", 
            "Created": "2018-09-18T18:48:20.947", 
            "Sent": "2018-09-18T18:48:21.777", 
            "Delivered": "2018-09-18T18:49:03.847", 
            "Signed": "2018-09-18T18:50:13.96", 
            "Completed": "2018-09-18T18:50:13.96", 
            "ACStatus": "Original", 
            "ACStatusDate": "2018-09-18T18:48:20.947", 
            "ACHolder": "Caesar Engroba", 
            "ACHolderEmail": "caesar@itpscorp.com", 
            "ACHolderLocation": "DocuSign", 
            "SigningLocation": "Online", 
            "SenderIPAddress": "192.112.255.145", 
            "EnvelopePDFHash": null, 
            "CustomFields": null, 
            "AutoNavigation": "true", 
            "EnvelopeIdStamping": "true", 
            "AuthoritativeCopy": "false", 
            "DocumentStatuses": {
                "DocumentStatus": {
                    "ID": "1", 
                    "Name": "/home/itp/itp-quote-copy.pdf", 
                    "TemplateName": null, 
                    "Sequence": "1"
                }
            }
        }
    }
}